The system is: Linux - 4.4.1-2-surfacepro3 - x86_64
Compiling the C compiler identification source file "CMakeCCompilerId.c" succeeded.
Compiler: /usr/bin/cc 
Build flags: 
Id flags: 

The output was:
0


Compilation of the C compiler identification source "CMakeCCompilerId.c" produced "a.out"

The C compiler identification is GNU, found in "/home/gaetan/Téléchargements/apitrace/build/CMakeFiles/3.5.0/CompilerIdC/a.out"

Compiling the CXX compiler identification source file "CMakeCXXCompilerId.cpp" succeeded.
Compiler: /usr/bin/c++ 
Build flags: 
Id flags: 

The output was:
0


Compilation of the CXX compiler identification source "CMakeCXXCompilerId.cpp" produced "a.out"

The CXX compiler identification is GNU, found in "/home/gaetan/Téléchargements/apitrace/build/CMakeFiles/3.5.0/CompilerIdCXX/a.out"

Determining if the C compiler works passed with the following output:
Change Dir: /home/gaetan/Téléchargements/apitrace/build/CMakeFiles/CMakeTmp

Run Build Command:"/usr/bin/make" "cmTC_4b537/fast"
/usr/bin/make -f CMakeFiles/cmTC_4b537.dir/build.make CMakeFiles/cmTC_4b537.dir/build
make[1] : on entre dans le répertoire « /home/gaetan/Téléchargements/apitrace/build/CMakeFiles/CMakeTmp »
Building C object CMakeFiles/cmTC_4b537.dir/testCCompiler.c.o
/usr/bin/cc     -o CMakeFiles/cmTC_4b537.dir/testCCompiler.c.o   -c /home/gaetan/Téléchargements/apitrace/build/CMakeFiles/CMakeTmp/testCCompiler.c
Linking C executable cmTC_4b537
/usr/bin/cmake -E cmake_link_script CMakeFiles/cmTC_4b537.dir/link.txt --verbose=1
/usr/bin/cc       CMakeFiles/cmTC_4b537.dir/testCCompiler.c.o  -o cmTC_4b537 -rdynamic 
make[1] : on quitte le répertoire « /home/gaetan/Téléchargements/apitrace/build/CMakeFiles/CMakeTmp »


Detecting C compiler ABI info compiled with the following output:
Change Dir: /home/gaetan/Téléchargements/apitrace/build/CMakeFiles/CMakeTmp

Run Build Command:"/usr/bin/make" "cmTC_8c156/fast"
/usr/bin/make -f CMakeFiles/cmTC_8c156.dir/build.make CMakeFiles/cmTC_8c156.dir/build
make[1] : on entre dans le répertoire « /home/gaetan/Téléchargements/apitrace/build/CMakeFiles/CMakeTmp »
Building C object CMakeFiles/cmTC_8c156.dir/CMakeCCompilerABI.c.o
/usr/bin/cc     -o CMakeFiles/cmTC_8c156.dir/CMakeCCompilerABI.c.o   -c /usr/share/cmake-3.5/Modules/CMakeCCompilerABI.c
Linking C executable cmTC_8c156
/usr/bin/cmake -E cmake_link_script CMakeFiles/cmTC_8c156.dir/link.txt --verbose=1
/usr/bin/cc      -v CMakeFiles/cmTC_8c156.dir/CMakeCCompilerABI.c.o  -o cmTC_8c156 -rdynamic  
Utilisation des specs internes.
COLLECT_GCC=/usr/bin/cc
COLLECT_LTO_WRAPPER=/usr/lib/gcc/x86_64-unknown-linux-gnu/5.3.0/lto-wrapper
Cible : x86_64-unknown-linux-gnu
Configuré avec: /build/gcc/src/gcc-5-20160209/configure --prefix=/usr --libdir=/usr/lib --libexecdir=/usr/lib --mandir=/usr/share/man --infodir=/usr/share/info --with-bugurl=https://bugs.archlinux.org/ --enable-languages=c,c++,ada,fortran,go,lto,objc,obj-c++ --enable-shared --enable-threads=posix --enable-libmpx --with-system-zlib --with-isl --enable-__cxa_atexit --disable-libunwind-exceptions --enable-clocale=gnu --disable-libstdcxx-pch --disable-libssp --enable-gnu-unique-object --enable-linker-build-id --enable-lto --enable-plugin --enable-install-libiberty --with-linker-hash-style=gnu --enable-gnu-indirect-function --disable-multilib --disable-werror --enable-checking=release
Modèle de thread: posix
gcc version 5.3.0 (GCC) 
COMPILER_PATH=/usr/lib/gcc/x86_64-unknown-linux-gnu/5.3.0/:/usr/lib/gcc/x86_64-unknown-linux-gnu/5.3.0/:/usr/lib/gcc/x86_64-unknown-linux-gnu/:/usr/lib/gcc/x86_64-unknown-linux-gnu/5.3.0/:/usr/lib/gcc/x86_64-unknown-linux-gnu/
LIBRARY_PATH=/usr/lib/gcc/x86_64-unknown-linux-gnu/5.3.0/:/usr/lib/gcc/x86_64-unknown-linux-gnu/5.3.0/../../../../lib/:/lib/../lib/:/usr/lib/../lib/:/usr/lib/gcc/x86_64-unknown-linux-gnu/5.3.0/../../../:/lib/:/usr/lib/
COLLECT_GCC_OPTIONS='-v' '-o' 'cmTC_8c156' '-rdynamic' '-mtune=generic' '-march=x86-64'
 /usr/lib/gcc/x86_64-unknown-linux-gnu/5.3.0/collect2 -plugin /usr/lib/gcc/x86_64-unknown-linux-gnu/5.3.0/liblto_plugin.so -plugin-opt=/usr/lib/gcc/x86_64-unknown-linux-gnu/5.3.0/lto-wrapper -plugin-opt=-fresolution=/tmp/ccCCsb41.res -plugin-opt=-pass-through=-lgcc -plugin-opt=-pass-through=-lgcc_s -plugin-opt=-pass-through=-lc -plugin-opt=-pass-through=-lgcc -plugin-opt=-pass-through=-lgcc_s --build-id --eh-frame-hdr --hash-style=gnu -m elf_x86_64 -export-dynamic -dynamic-linker /lib64/ld-linux-x86-64.so.2 -o cmTC_8c156 /usr/lib/gcc/x86_64-unknown-linux-gnu/5.3.0/../../../../lib/crt1.o /usr/lib/gcc/x86_64-unknown-linux-gnu/5.3.0/../../../../lib/crti.o /usr/lib/gcc/x86_64-unknown-linux-gnu/5.3.0/crtbegin.o -L/usr/lib/gcc/x86_64-unknown-linux-gnu/5.3.0 -L/usr/lib/gcc/x86_64-unknown-linux-gnu/5.3.0/../../../../lib -L/lib/../lib -L/usr/lib/../lib -L/usr/lib/gcc/x86_64-unknown-linux-gnu/5.3.0/../../.. CMakeFiles/cmTC_8c156.dir/CMakeCCompilerABI.c.o -lgcc --as-needed -lgcc_s --no-as-needed -lc -lgcc --as-needed -lgcc_s --no-as-needed /usr/lib/gcc/x86_64-unknown-linux-gnu/5.3.0/crtend.o /usr/lib/gcc/x86_64-unknown-linux-gnu/5.3.0/../../../../lib/crtn.o
make[1] : on quitte le répertoire « /home/gaetan/Téléchargements/apitrace/build/CMakeFiles/CMakeTmp »


Parsed C implicit link information from above output:
  link line regex: [^( *|.*[/\])(ld|([^/\]+-)?ld|collect2)[^/\]*( |$)]
  ignore line: [Change Dir: /home/gaetan/Téléchargements/apitrace/build/CMakeFiles/CMakeTmp]
  ignore line: []
  ignore line: [Run Build Command:"/usr/bin/make" "cmTC_8c156/fast"]
  ignore line: [/usr/bin/make -f CMakeFiles/cmTC_8c156.dir/build.make CMakeFiles/cmTC_8c156.dir/build]
  ignore line: [make[1] : on entre dans le répertoire « /home/gaetan/Téléchargements/apitrace/build/CMakeFiles/CMakeTmp »]
  ignore line: [Building C object CMakeFiles/cmTC_8c156.dir/CMakeCCompilerABI.c.o]
  ignore line: [/usr/bin/cc     -o CMakeFiles/cmTC_8c156.dir/CMakeCCompilerABI.c.o   -c /usr/share/cmake-3.5/Modules/CMakeCCompilerABI.c]
  ignore line: [Linking C executable cmTC_8c156]
  ignore line: [/usr/bin/cmake -E cmake_link_script CMakeFiles/cmTC_8c156.dir/link.txt --verbose=1]
  ignore line: [/usr/bin/cc      -v CMakeFiles/cmTC_8c156.dir/CMakeCCompilerABI.c.o  -o cmTC_8c156 -rdynamic  ]
  ignore line: [Utilisation des specs internes.]
  ignore line: [COLLECT_GCC=/usr/bin/cc]
  ignore line: [COLLECT_LTO_WRAPPER=/usr/lib/gcc/x86_64-unknown-linux-gnu/5.3.0/lto-wrapper]
  ignore line: [Cible : x86_64-unknown-linux-gnu]
  ignore line: [Configuré avec: /build/gcc/src/gcc-5-20160209/configure --prefix=/usr --libdir=/usr/lib --libexecdir=/usr/lib --mandir=/usr/share/man --infodir=/usr/share/info --with-bugurl=https://bugs.archlinux.org/ --enable-languages=c,c++,ada,fortran,go,lto,objc,obj-c++ --enable-shared --enable-threads=posix --enable-libmpx --with-system-zlib --with-isl --enable-__cxa_atexit --disable-libunwind-exceptions --enable-clocale=gnu --disable-libstdcxx-pch --disable-libssp --enable-gnu-unique-object --enable-linker-build-id --enable-lto --enable-plugin --enable-install-libiberty --with-linker-hash-style=gnu --enable-gnu-indirect-function --disable-multilib --disable-werror --enable-checking=release]
  ignore line: [Modèle de thread: posix]
  ignore line: [gcc version 5.3.0 (GCC) ]
  ignore line: [COMPILER_PATH=/usr/lib/gcc/x86_64-unknown-linux-gnu/5.3.0/:/usr/lib/gcc/x86_64-unknown-linux-gnu/5.3.0/:/usr/lib/gcc/x86_64-unknown-linux-gnu/:/usr/lib/gcc/x86_64-unknown-linux-gnu/5.3.0/:/usr/lib/gcc/x86_64-unknown-linux-gnu/]
  ignore line: [LIBRARY_PATH=/usr/lib/gcc/x86_64-unknown-linux-gnu/5.3.0/:/usr/lib/gcc/x86_64-unknown-linux-gnu/5.3.0/../../../../lib/:/lib/../lib/:/usr/lib/../lib/:/usr/lib/gcc/x86_64-unknown-linux-gnu/5.3.0/../../../:/lib/:/usr/lib/]
  ignore line: [COLLECT_GCC_OPTIONS='-v' '-o' 'cmTC_8c156' '-rdynamic' '-mtune=generic' '-march=x86-64']
  link line: [ /usr/lib/gcc/x86_64-unknown-linux-gnu/5.3.0/collect2 -plugin /usr/lib/gcc/x86_64-unknown-linux-gnu/5.3.0/liblto_plugin.so -plugin-opt=/usr/lib/gcc/x86_64-unknown-linux-gnu/5.3.0/lto-wrapper -plugin-opt=-fresolution=/tmp/ccCCsb41.res -plugin-opt=-pass-through=-lgcc -plugin-opt=-pass-through=-lgcc_s -plugin-opt=-pass-through=-lc -plugin-opt=-pass-through=-lgcc -plugin-opt=-pass-through=-lgcc_s --build-id --eh-frame-hdr --hash-style=gnu -m elf_x86_64 -export-dynamic -dynamic-linker /lib64/ld-linux-x86-64.so.2 -o cmTC_8c156 /usr/lib/gcc/x86_64-unknown-linux-gnu/5.3.0/../../../../lib/crt1.o /usr/lib/gcc/x86_64-unknown-linux-gnu/5.3.0/../../../../lib/crti.o /usr/lib/gcc/x86_64-unknown-linux-gnu/5.3.0/crtbegin.o -L/usr/lib/gcc/x86_64-unknown-linux-gnu/5.3.0 -L/usr/lib/gcc/x86_64-unknown-linux-gnu/5.3.0/../../../../lib -L/lib/../lib -L/usr/lib/../lib -L/usr/lib/gcc/x86_64-unknown-linux-gnu/5.3.0/../../.. CMakeFiles/cmTC_8c156.dir/CMakeCCompilerABI.c.o -lgcc --as-needed -lgcc_s --no-as-needed -lc -lgcc --as-needed -lgcc_s --no-as-needed /usr/lib/gcc/x86_64-unknown-linux-gnu/5.3.0/crtend.o /usr/lib/gcc/x86_64-unknown-linux-gnu/5.3.0/../../../../lib/crtn.o]
    arg [/usr/lib/gcc/x86_64-unknown-linux-gnu/5.3.0/collect2] ==> ignore
    arg [-plugin] ==> ignore
    arg [/usr/lib/gcc/x86_64-unknown-linux-gnu/5.3.0/liblto_plugin.so] ==> ignore
    arg [-plugin-opt=/usr/lib/gcc/x86_64-unknown-linux-gnu/5.3.0/lto-wrapper] ==> ignore
    arg [-plugin-opt=-fresolution=/tmp/ccCCsb41.res] ==> ignore
    arg [-plugin-opt=-pass-through=-lgcc] ==> ignore
    arg [-plugin-opt=-pass-through=-lgcc_s] ==> ignore
    arg [-plugin-opt=-pass-through=-lc] ==> ignore
    arg [-plugin-opt=-pass-through=-lgcc] ==> ignore
    arg [-plugin-opt=-pass-through=-lgcc_s] ==> ignore
    arg [--build-id] ==> ignore
    arg [--eh-frame-hdr] ==> ignore
    arg [--hash-style=gnu] ==> ignore
    arg [-m] ==> ignore
    arg [elf_x86_64] ==> ignore
    arg [-export-dynamic] ==> ignore
    arg [-dynamic-linker] ==> ignore
    arg [/lib64/ld-linux-x86-64.so.2] ==> ignore
    arg [-o] ==> ignore
    arg [cmTC_8c156] ==> ignore
    arg [/usr/lib/gcc/x86_64-unknown-linux-gnu/5.3.0/../../../../lib/crt1.o] ==> ignore
    arg [/usr/lib/gcc/x86_64-unknown-linux-gnu/5.3.0/../../../../lib/crti.o] ==> ignore
    arg [/usr/lib/gcc/x86_64-unknown-linux-gnu/5.3.0/crtbegin.o] ==> ignore
    arg [-L/usr/lib/gcc/x86_64-unknown-linux-gnu/5.3.0] ==> dir [/usr/lib/gcc/x86_64-unknown-linux-gnu/5.3.0]
    arg [-L/usr/lib/gcc/x86_64-unknown-linux-gnu/5.3.0/../../../../lib] ==> dir [/usr/lib/gcc/x86_64-unknown-linux-gnu/5.3.0/../../../../lib]
    arg [-L/lib/../lib] ==> dir [/lib/../lib]
    arg [-L/usr/lib/../lib] ==> dir [/usr/lib/../lib]
    arg [-L/usr/lib/gcc/x86_64-unknown-linux-gnu/5.3.0/../../..] ==> dir [/usr/lib/gcc/x86_64-unknown-linux-gnu/5.3.0/../../..]
    arg [CMakeFiles/cmTC_8c156.dir/CMakeCCompilerABI.c.o] ==> ignore
    arg [-lgcc] ==> lib [gcc]
    arg [--as-needed] ==> ignore
    arg [-lgcc_s] ==> lib [gcc_s]
    arg [--no-as-needed] ==> ignore
    arg [-lc] ==> lib [c]
    arg [-lgcc] ==> lib [gcc]
    arg [--as-needed] ==> ignore
    arg [-lgcc_s] ==> lib [gcc_s]
    arg [--no-as-needed] ==> ignore
    arg [/usr/lib/gcc/x86_64-unknown-linux-gnu/5.3.0/crtend.o] ==> ignore
    arg [/usr/lib/gcc/x86_64-unknown-linux-gnu/5.3.0/../../../../lib/crtn.o] ==> ignore
  remove lib [gcc]
  remove lib [gcc_s]
  remove lib [gcc]
  remove lib [gcc_s]
  collapse library dir [/usr/lib/gcc/x86_64-unknown-linux-gnu/5.3.0] ==> [/usr/lib/gcc/x86_64-unknown-linux-gnu/5.3.0]
  collapse library dir [/usr/lib/gcc/x86_64-unknown-linux-gnu/5.3.0/../../../../lib] ==> [/usr/lib]
  collapse library dir [/lib/../lib] ==> [/lib]
  collapse library dir [/usr/lib/../lib] ==> [/usr/lib]
  collapse library dir [/usr/lib/gcc/x86_64-unknown-linux-gnu/5.3.0/../../..] ==> [/usr/lib]
  implicit libs: [c]
  implicit dirs: [/usr/lib/gcc/x86_64-unknown-linux-gnu/5.3.0;/usr/lib;/lib]
  implicit fwks: []




Detecting C [-std=c11] compiler features compiled with the following output:
Change Dir: /home/gaetan/Téléchargements/apitrace/build/CMakeFiles/CMakeTmp

Run Build Command:"/usr/bin/make" "cmTC_78b47/fast"
/usr/bin/make -f CMakeFiles/cmTC_78b47.dir/build.make CMakeFiles/cmTC_78b47.dir/build
make[1] : on entre dans le répertoire « /home/gaetan/Téléchargements/apitrace/build/CMakeFiles/CMakeTmp »
Building C object CMakeFiles/cmTC_78b47.dir/feature_tests.c.o
/usr/bin/cc    -std=c11 -o CMakeFiles/cmTC_78b47.dir/feature_tests.c.o   -c /home/gaetan/Téléchargements/apitrace/build/CMakeFiles/feature_tests.c
Linking C executable cmTC_78b47
/usr/bin/cmake -E cmake_link_script CMakeFiles/cmTC_78b47.dir/link.txt --verbose=1
/usr/bin/cc       CMakeFiles/cmTC_78b47.dir/feature_tests.c.o  -o cmTC_78b47 -rdynamic 
make[1] : on quitte le répertoire « /home/gaetan/Téléchargements/apitrace/build/CMakeFiles/CMakeTmp »


    Feature record: C_FEATURE:1c_function_prototypes
    Feature record: C_FEATURE:1c_restrict
    Feature record: C_FEATURE:1c_static_assert
    Feature record: C_FEATURE:1c_variadic_macros


Detecting C [-std=c99] compiler features compiled with the following output:
Change Dir: /home/gaetan/Téléchargements/apitrace/build/CMakeFiles/CMakeTmp

Run Build Command:"/usr/bin/make" "cmTC_b939b/fast"
/usr/bin/make -f CMakeFiles/cmTC_b939b.dir/build.make CMakeFiles/cmTC_b939b.dir/build
make[1] : on entre dans le répertoire « /home/gaetan/Téléchargements/apitrace/build/CMakeFiles/CMakeTmp »
Building C object CMakeFiles/cmTC_b939b.dir/feature_tests.c.o
/usr/bin/cc    -std=c99 -o CMakeFiles/cmTC_b939b.dir/feature_tests.c.o   -c /home/gaetan/Téléchargements/apitrace/build/CMakeFiles/feature_tests.c
Linking C executable cmTC_b939b
/usr/bin/cmake -E cmake_link_script CMakeFiles/cmTC_b939b.dir/link.txt --verbose=1
/usr/bin/cc       CMakeFiles/cmTC_b939b.dir/feature_tests.c.o  -o cmTC_b939b -rdynamic 
make[1] : on quitte le répertoire « /home/gaetan/Téléchargements/apitrace/build/CMakeFiles/CMakeTmp »


    Feature record: C_FEATURE:1c_function_prototypes
    Feature record: C_FEATURE:1c_restrict
    Feature record: C_FEATURE:0c_static_assert
    Feature record: C_FEATURE:1c_variadic_macros


Detecting C [-std=c90] compiler features compiled with the following output:
Change Dir: /home/gaetan/Téléchargements/apitrace/build/CMakeFiles/CMakeTmp

Run Build Command:"/usr/bin/make" "cmTC_d58af/fast"
/usr/bin/make -f CMakeFiles/cmTC_d58af.dir/build.make CMakeFiles/cmTC_d58af.dir/build
make[1] : on entre dans le répertoire « /home/gaetan/Téléchargements/apitrace/build/CMakeFiles/CMakeTmp »
Building C object CMakeFiles/cmTC_d58af.dir/feature_tests.c.o
/usr/bin/cc    -std=c90 -o CMakeFiles/cmTC_d58af.dir/feature_tests.c.o   -c /home/gaetan/Téléchargements/apitrace/build/CMakeFiles/feature_tests.c
Linking C executable cmTC_d58af
/usr/bin/cmake -E cmake_link_script CMakeFiles/cmTC_d58af.dir/link.txt --verbose=1
/usr/bin/cc       CMakeFiles/cmTC_d58af.dir/feature_tests.c.o  -o cmTC_d58af -rdynamic 
make[1] : on quitte le répertoire « /home/gaetan/Téléchargements/apitrace/build/CMakeFiles/CMakeTmp »


    Feature record: C_FEATURE:1c_function_prototypes
    Feature record: C_FEATURE:0c_restrict
    Feature record: C_FEATURE:0c_static_assert
    Feature record: C_FEATURE:0c_variadic_macros
Determining if the CXX compiler works passed with the following output:
Change Dir: /home/gaetan/Téléchargements/apitrace/build/CMakeFiles/CMakeTmp

Run Build Command:"/usr/bin/make" "cmTC_08778/fast"
/usr/bin/make -f CMakeFiles/cmTC_08778.dir/build.make CMakeFiles/cmTC_08778.dir/build
make[1] : on entre dans le répertoire « /home/gaetan/Téléchargements/apitrace/build/CMakeFiles/CMakeTmp »
Building CXX object CMakeFiles/cmTC_08778.dir/testCXXCompiler.cxx.o
/usr/bin/c++      -o CMakeFiles/cmTC_08778.dir/testCXXCompiler.cxx.o -c /home/gaetan/Téléchargements/apitrace/build/CMakeFiles/CMakeTmp/testCXXCompiler.cxx
Linking CXX executable cmTC_08778
/usr/bin/cmake -E cmake_link_script CMakeFiles/cmTC_08778.dir/link.txt --verbose=1
/usr/bin/c++        CMakeFiles/cmTC_08778.dir/testCXXCompiler.cxx.o  -o cmTC_08778 -rdynamic 
make[1] : on quitte le répertoire « /home/gaetan/Téléchargements/apitrace/build/CMakeFiles/CMakeTmp »


Detecting CXX compiler ABI info compiled with the following output:
Change Dir: /home/gaetan/Téléchargements/apitrace/build/CMakeFiles/CMakeTmp

Run Build Command:"/usr/bin/make" "cmTC_3a9ee/fast"
/usr/bin/make -f CMakeFiles/cmTC_3a9ee.dir/build.make CMakeFiles/cmTC_3a9ee.dir/build
make[1] : on entre dans le répertoire « /home/gaetan/Téléchargements/apitrace/build/CMakeFiles/CMakeTmp »
Building CXX object CMakeFiles/cmTC_3a9ee.dir/CMakeCXXCompilerABI.cpp.o
/usr/bin/c++      -o CMakeFiles/cmTC_3a9ee.dir/CMakeCXXCompilerABI.cpp.o -c /usr/share/cmake-3.5/Modules/CMakeCXXCompilerABI.cpp
Linking CXX executable cmTC_3a9ee
/usr/bin/cmake -E cmake_link_script CMakeFiles/cmTC_3a9ee.dir/link.txt --verbose=1
/usr/bin/c++       -v CMakeFiles/cmTC_3a9ee.dir/CMakeCXXCompilerABI.cpp.o  -o cmTC_3a9ee -rdynamic  
Utilisation des specs internes.
COLLECT_GCC=/usr/bin/c++
COLLECT_LTO_WRAPPER=/usr/lib/gcc/x86_64-unknown-linux-gnu/5.3.0/lto-wrapper
Cible : x86_64-unknown-linux-gnu
Configuré avec: /build/gcc/src/gcc-5-20160209/configure --prefix=/usr --libdir=/usr/lib --libexecdir=/usr/lib --mandir=/usr/share/man --infodir=/usr/share/info --with-bugurl=https://bugs.archlinux.org/ --enable-languages=c,c++,ada,fortran,go,lto,objc,obj-c++ --enable-shared --enable-threads=posix --enable-libmpx --with-system-zlib --with-isl --enable-__cxa_atexit --disable-libunwind-exceptions --enable-clocale=gnu --disable-libstdcxx-pch --disable-libssp --enable-gnu-unique-object --enable-linker-build-id --enable-lto --enable-plugin --enable-install-libiberty --with-linker-hash-style=gnu --enable-gnu-indirect-function --disable-multilib --disable-werror --enable-checking=release
Modèle de thread: posix
gcc version 5.3.0 (GCC) 
COMPILER_PATH=/usr/lib/gcc/x86_64-unknown-linux-gnu/5.3.0/:/usr/lib/gcc/x86_64-unknown-linux-gnu/5.3.0/:/usr/lib/gcc/x86_64-unknown-linux-gnu/:/usr/lib/gcc/x86_64-unknown-linux-gnu/5.3.0/:/usr/lib/gcc/x86_64-unknown-linux-gnu/
LIBRARY_PATH=/usr/lib/gcc/x86_64-unknown-linux-gnu/5.3.0/:/usr/lib/gcc/x86_64-unknown-linux-gnu/5.3.0/../../../../lib/:/lib/../lib/:/usr/lib/../lib/:/usr/lib/gcc/x86_64-unknown-linux-gnu/5.3.0/../../../:/lib/:/usr/lib/
COLLECT_GCC_OPTIONS='-v' '-o' 'cmTC_3a9ee' '-rdynamic' '-shared-libgcc' '-mtune=generic' '-march=x86-64'
 /usr/lib/gcc/x86_64-unknown-linux-gnu/5.3.0/collect2 -plugin /usr/lib/gcc/x86_64-unknown-linux-gnu/5.3.0/liblto_plugin.so -plugin-opt=/usr/lib/gcc/x86_64-unknown-linux-gnu/5.3.0/lto-wrapper -plugin-opt=-fresolution=/tmp/ccRUQSwt.res -plugin-opt=-pass-through=-lgcc_s -plugin-opt=-pass-through=-lgcc -plugin-opt=-pass-through=-lc -plugin-opt=-pass-through=-lgcc_s -plugin-opt=-pass-through=-lgcc --build-id --eh-frame-hdr --hash-style=gnu -m elf_x86_64 -export-dynamic -dynamic-linker /lib64/ld-linux-x86-64.so.2 -o cmTC_3a9ee /usr/lib/gcc/x86_64-unknown-linux-gnu/5.3.0/../../../../lib/crt1.o /usr/lib/gcc/x86_64-unknown-linux-gnu/5.3.0/../../../../lib/crti.o /usr/lib/gcc/x86_64-unknown-linux-gnu/5.3.0/crtbegin.o -L/usr/lib/gcc/x86_64-unknown-linux-gnu/5.3.0 -L/usr/lib/gcc/x86_64-unknown-linux-gnu/5.3.0/../../../../lib -L/lib/../lib -L/usr/lib/../lib -L/usr/lib/gcc/x86_64-unknown-linux-gnu/5.3.0/../../.. CMakeFiles/cmTC_3a9ee.dir/CMakeCXXCompilerABI.cpp.o -lstdc++ -lm -lgcc_s -lgcc -lc -lgcc_s -lgcc /usr/lib/gcc/x86_64-unknown-linux-gnu/5.3.0/crtend.o /usr/lib/gcc/x86_64-unknown-linux-gnu/5.3.0/../../../../lib/crtn.o
make[1] : on quitte le répertoire « /home/gaetan/Téléchargements/apitrace/build/CMakeFiles/CMakeTmp »


Parsed CXX implicit link information from above output:
  link line regex: [^( *|.*[/\])(ld|([^/\]+-)?ld|collect2)[^/\]*( |$)]
  ignore line: [Change Dir: /home/gaetan/Téléchargements/apitrace/build/CMakeFiles/CMakeTmp]
  ignore line: []
  ignore line: [Run Build Command:"/usr/bin/make" "cmTC_3a9ee/fast"]
  ignore line: [/usr/bin/make -f CMakeFiles/cmTC_3a9ee.dir/build.make CMakeFiles/cmTC_3a9ee.dir/build]
  ignore line: [make[1] : on entre dans le répertoire « /home/gaetan/Téléchargements/apitrace/build/CMakeFiles/CMakeTmp »]
  ignore line: [Building CXX object CMakeFiles/cmTC_3a9ee.dir/CMakeCXXCompilerABI.cpp.o]
  ignore line: [/usr/bin/c++      -o CMakeFiles/cmTC_3a9ee.dir/CMakeCXXCompilerABI.cpp.o -c /usr/share/cmake-3.5/Modules/CMakeCXXCompilerABI.cpp]
  ignore line: [Linking CXX executable cmTC_3a9ee]
  ignore line: [/usr/bin/cmake -E cmake_link_script CMakeFiles/cmTC_3a9ee.dir/link.txt --verbose=1]
  ignore line: [/usr/bin/c++       -v CMakeFiles/cmTC_3a9ee.dir/CMakeCXXCompilerABI.cpp.o  -o cmTC_3a9ee -rdynamic  ]
  ignore line: [Utilisation des specs internes.]
  ignore line: [COLLECT_GCC=/usr/bin/c++]
  ignore line: [COLLECT_LTO_WRAPPER=/usr/lib/gcc/x86_64-unknown-linux-gnu/5.3.0/lto-wrapper]
  ignore line: [Cible : x86_64-unknown-linux-gnu]
  ignore line: [Configuré avec: /build/gcc/src/gcc-5-20160209/configure --prefix=/usr --libdir=/usr/lib --libexecdir=/usr/lib --mandir=/usr/share/man --infodir=/usr/share/info --with-bugurl=https://bugs.archlinux.org/ --enable-languages=c,c++,ada,fortran,go,lto,objc,obj-c++ --enable-shared --enable-threads=posix --enable-libmpx --with-system-zlib --with-isl --enable-__cxa_atexit --disable-libunwind-exceptions --enable-clocale=gnu --disable-libstdcxx-pch --disable-libssp --enable-gnu-unique-object --enable-linker-build-id --enable-lto --enable-plugin --enable-install-libiberty --with-linker-hash-style=gnu --enable-gnu-indirect-function --disable-multilib --disable-werror --enable-checking=release]
  ignore line: [Modèle de thread: posix]
  ignore line: [gcc version 5.3.0 (GCC) ]
  ignore line: [COMPILER_PATH=/usr/lib/gcc/x86_64-unknown-linux-gnu/5.3.0/:/usr/lib/gcc/x86_64-unknown-linux-gnu/5.3.0/:/usr/lib/gcc/x86_64-unknown-linux-gnu/:/usr/lib/gcc/x86_64-unknown-linux-gnu/5.3.0/:/usr/lib/gcc/x86_64-unknown-linux-gnu/]
  ignore line: [LIBRARY_PATH=/usr/lib/gcc/x86_64-unknown-linux-gnu/5.3.0/:/usr/lib/gcc/x86_64-unknown-linux-gnu/5.3.0/../../../../lib/:/lib/../lib/:/usr/lib/../lib/:/usr/lib/gcc/x86_64-unknown-linux-gnu/5.3.0/../../../:/lib/:/usr/lib/]
  ignore line: [COLLECT_GCC_OPTIONS='-v' '-o' 'cmTC_3a9ee' '-rdynamic' '-shared-libgcc' '-mtune=generic' '-march=x86-64']
  link line: [ /usr/lib/gcc/x86_64-unknown-linux-gnu/5.3.0/collect2 -plugin /usr/lib/gcc/x86_64-unknown-linux-gnu/5.3.0/liblto_plugin.so -plugin-opt=/usr/lib/gcc/x86_64-unknown-linux-gnu/5.3.0/lto-wrapper -plugin-opt=-fresolution=/tmp/ccRUQSwt.res -plugin-opt=-pass-through=-lgcc_s -plugin-opt=-pass-through=-lgcc -plugin-opt=-pass-through=-lc -plugin-opt=-pass-through=-lgcc_s -plugin-opt=-pass-through=-lgcc --build-id --eh-frame-hdr --hash-style=gnu -m elf_x86_64 -export-dynamic -dynamic-linker /lib64/ld-linux-x86-64.so.2 -o cmTC_3a9ee /usr/lib/gcc/x86_64-unknown-linux-gnu/5.3.0/../../../../lib/crt1.o /usr/lib/gcc/x86_64-unknown-linux-gnu/5.3.0/../../../../lib/crti.o /usr/lib/gcc/x86_64-unknown-linux-gnu/5.3.0/crtbegin.o -L/usr/lib/gcc/x86_64-unknown-linux-gnu/5.3.0 -L/usr/lib/gcc/x86_64-unknown-linux-gnu/5.3.0/../../../../lib -L/lib/../lib -L/usr/lib/../lib -L/usr/lib/gcc/x86_64-unknown-linux-gnu/5.3.0/../../.. CMakeFiles/cmTC_3a9ee.dir/CMakeCXXCompilerABI.cpp.o -lstdc++ -lm -lgcc_s -lgcc -lc -lgcc_s -lgcc /usr/lib/gcc/x86_64-unknown-linux-gnu/5.3.0/crtend.o /usr/lib/gcc/x86_64-unknown-linux-gnu/5.3.0/../../../../lib/crtn.o]
    arg [/usr/lib/gcc/x86_64-unknown-linux-gnu/5.3.0/collect2] ==> ignore
    arg [-plugin] ==> ignore
    arg [/usr/lib/gcc/x86_64-unknown-linux-gnu/5.3.0/liblto_plugin.so] ==> ignore
    arg [-plugin-opt=/usr/lib/gcc/x86_64-unknown-linux-gnu/5.3.0/lto-wrapper] ==> ignore
    arg [-plugin-opt=-fresolution=/tmp/ccRUQSwt.res] ==> ignore
    arg [-plugin-opt=-pass-through=-lgcc_s] ==> ignore
    arg [-plugin-opt=-pass-through=-lgcc] ==> ignore
    arg [-plugin-opt=-pass-through=-lc] ==> ignore
    arg [-plugin-opt=-pass-through=-lgcc_s] ==> ignore
    arg [-plugin-opt=-pass-through=-lgcc] ==> ignore
    arg [--build-id] ==> ignore
    arg [--eh-frame-hdr] ==> ignore
    arg [--hash-style=gnu] ==> ignore
    arg [-m] ==> ignore
    arg [elf_x86_64] ==> ignore
    arg [-export-dynamic] ==> ignore
    arg [-dynamic-linker] ==> ignore
    arg [/lib64/ld-linux-x86-64.so.2] ==> ignore
    arg [-o] ==> ignore
    arg [cmTC_3a9ee] ==> ignore
    arg [/usr/lib/gcc/x86_64-unknown-linux-gnu/5.3.0/../../../../lib/crt1.o] ==> ignore
    arg [/usr/lib/gcc/x86_64-unknown-linux-gnu/5.3.0/../../../../lib/crti.o] ==> ignore
    arg [/usr/lib/gcc/x86_64-unknown-linux-gnu/5.3.0/crtbegin.o] ==> ignore
    arg [-L/usr/lib/gcc/x86_64-unknown-linux-gnu/5.3.0] ==> dir [/usr/lib/gcc/x86_64-unknown-linux-gnu/5.3.0]
    arg [-L/usr/lib/gcc/x86_64-unknown-linux-gnu/5.3.0/../../../../lib] ==> dir [/usr/lib/gcc/x86_64-unknown-linux-gnu/5.3.0/../../../../lib]
    arg [-L/lib/../lib] ==> dir [/lib/../lib]
    arg [-L/usr/lib/../lib] ==> dir [/usr/lib/../lib]
    arg [-L/usr/lib/gcc/x86_64-unknown-linux-gnu/5.3.0/../../..] ==> dir [/usr/lib/gcc/x86_64-unknown-linux-gnu/5.3.0/../../..]
    arg [CMakeFiles/cmTC_3a9ee.dir/CMakeCXXCompilerABI.cpp.o] ==> ignore
    arg [-lstdc++] ==> lib [stdc++]
    arg [-lm] ==> lib [m]
    arg [-lgcc_s] ==> lib [gcc_s]
    arg [-lgcc] ==> lib [gcc]
    arg [-lc] ==> lib [c]
    arg [-lgcc_s] ==> lib [gcc_s]
    arg [-lgcc] ==> lib [gcc]
    arg [/usr/lib/gcc/x86_64-unknown-linux-gnu/5.3.0/crtend.o] ==> ignore
    arg [/usr/lib/gcc/x86_64-unknown-linux-gnu/5.3.0/../../../../lib/crtn.o] ==> ignore
  remove lib [gcc_s]
  remove lib [gcc]
  remove lib [gcc_s]
  remove lib [gcc]
  collapse library dir [/usr/lib/gcc/x86_64-unknown-linux-gnu/5.3.0] ==> [/usr/lib/gcc/x86_64-unknown-linux-gnu/5.3.0]
  collapse library dir [/usr/lib/gcc/x86_64-unknown-linux-gnu/5.3.0/../../../../lib] ==> [/usr/lib]
  collapse library dir [/lib/../lib] ==> [/lib]
  collapse library dir [/usr/lib/../lib] ==> [/usr/lib]
  collapse library dir [/usr/lib/gcc/x86_64-unknown-linux-gnu/5.3.0/../../..] ==> [/usr/lib]
  implicit libs: [stdc++;m;c]
  implicit dirs: [/usr/lib/gcc/x86_64-unknown-linux-gnu/5.3.0;/usr/lib;/lib]
  implicit fwks: []




Detecting CXX [-std=c++14] compiler features compiled with the following output:
Change Dir: /home/gaetan/Téléchargements/apitrace/build/CMakeFiles/CMakeTmp

Run Build Command:"/usr/bin/make" "cmTC_77856/fast"
/usr/bin/make -f CMakeFiles/cmTC_77856.dir/build.make CMakeFiles/cmTC_77856.dir/build
make[1] : on entre dans le répertoire « /home/gaetan/Téléchargements/apitrace/build/CMakeFiles/CMakeTmp »
Building CXX object CMakeFiles/cmTC_77856.dir/feature_tests.cxx.o
/usr/bin/c++     -std=c++14 -o CMakeFiles/cmTC_77856.dir/feature_tests.cxx.o -c /home/gaetan/Téléchargements/apitrace/build/CMakeFiles/feature_tests.cxx
Linking CXX executable cmTC_77856
/usr/bin/cmake -E cmake_link_script CMakeFiles/cmTC_77856.dir/link.txt --verbose=1
/usr/bin/c++        CMakeFiles/cmTC_77856.dir/feature_tests.cxx.o  -o cmTC_77856 -rdynamic 
make[1] : on quitte le répertoire « /home/gaetan/Téléchargements/apitrace/build/CMakeFiles/CMakeTmp »


    Feature record: CXX_FEATURE:1cxx_aggregate_default_initializers
    Feature record: CXX_FEATURE:1cxx_alias_templates
    Feature record: CXX_FEATURE:1cxx_alignas
    Feature record: CXX_FEATURE:1cxx_alignof
    Feature record: CXX_FEATURE:1cxx_attributes
    Feature record: CXX_FEATURE:1cxx_attribute_deprecated
    Feature record: CXX_FEATURE:1cxx_auto_type
    Feature record: CXX_FEATURE:1cxx_binary_literals
    Feature record: CXX_FEATURE:1cxx_constexpr
    Feature record: CXX_FEATURE:1cxx_contextual_conversions
    Feature record: CXX_FEATURE:1cxx_decltype
    Feature record: CXX_FEATURE:1cxx_decltype_auto
    Feature record: CXX_FEATURE:1cxx_decltype_incomplete_return_types
    Feature record: CXX_FEATURE:1cxx_default_function_template_args
    Feature record: CXX_FEATURE:1cxx_defaulted_functions
    Feature record: CXX_FEATURE:1cxx_defaulted_move_initializers
    Feature record: CXX_FEATURE:1cxx_delegating_constructors
    Feature record: CXX_FEATURE:1cxx_deleted_functions
    Feature record: CXX_FEATURE:1cxx_digit_separators
    Feature record: CXX_FEATURE:1cxx_enum_forward_declarations
    Feature record: CXX_FEATURE:1cxx_explicit_conversions
    Feature record: CXX_FEATURE:1cxx_extended_friend_declarations
    Feature record: CXX_FEATURE:1cxx_extern_templates
    Feature record: CXX_FEATURE:1cxx_final
    Feature record: CXX_FEATURE:1cxx_func_identifier
    Feature record: CXX_FEATURE:1cxx_generalized_initializers
    Feature record: CXX_FEATURE:1cxx_generic_lambdas
    Feature record: CXX_FEATURE:1cxx_inheriting_constructors
    Feature record: CXX_FEATURE:1cxx_inline_namespaces
    Feature record: CXX_FEATURE:1cxx_lambdas
    Feature record: CXX_FEATURE:1cxx_lambda_init_captures
    Feature record: CXX_FEATURE:1cxx_local_type_template_args
    Feature record: CXX_FEATURE:1cxx_long_long_type
    Feature record: CXX_FEATURE:1cxx_noexcept
    Feature record: CXX_FEATURE:1cxx_nonstatic_member_init
    Feature record: CXX_FEATURE:1cxx_nullptr
    Feature record: CXX_FEATURE:1cxx_override
    Feature record: CXX_FEATURE:1cxx_range_for
    Feature record: CXX_FEATURE:1cxx_raw_string_literals
    Feature record: CXX_FEATURE:1cxx_reference_qualified_functions
    Feature record: CXX_FEATURE:1cxx_relaxed_constexpr
    Feature record: CXX_FEATURE:1cxx_return_type_deduction
    Feature record: CXX_FEATURE:1cxx_right_angle_brackets
    Feature record: CXX_FEATURE:1cxx_rvalue_references
    Feature record: CXX_FEATURE:1cxx_sizeof_member
    Feature record: CXX_FEATURE:1cxx_static_assert
    Feature record: CXX_FEATURE:1cxx_strong_enums
    Feature record: CXX_FEATURE:1cxx_template_template_parameters
    Feature record: CXX_FEATURE:1cxx_thread_local
    Feature record: CXX_FEATURE:1cxx_trailing_return_types
    Feature record: CXX_FEATURE:1cxx_unicode_literals
    Feature record: CXX_FEATURE:1cxx_uniform_initialization
    Feature record: CXX_FEATURE:1cxx_unrestricted_unions
    Feature record: CXX_FEATURE:1cxx_user_literals
    Feature record: CXX_FEATURE:1cxx_variable_templates
    Feature record: CXX_FEATURE:1cxx_variadic_macros
    Feature record: CXX_FEATURE:1cxx_variadic_templates


Detecting CXX [-std=c++11] compiler features compiled with the following output:
Change Dir: /home/gaetan/Téléchargements/apitrace/build/CMakeFiles/CMakeTmp

Run Build Command:"/usr/bin/make" "cmTC_136af/fast"
/usr/bin/make -f CMakeFiles/cmTC_136af.dir/build.make CMakeFiles/cmTC_136af.dir/build
make[1] : on entre dans le répertoire « /home/gaetan/Téléchargements/apitrace/build/CMakeFiles/CMakeTmp »
Building CXX object CMakeFiles/cmTC_136af.dir/feature_tests.cxx.o
/usr/bin/c++     -std=c++11 -o CMakeFiles/cmTC_136af.dir/feature_tests.cxx.o -c /home/gaetan/Téléchargements/apitrace/build/CMakeFiles/feature_tests.cxx
Linking CXX executable cmTC_136af
/usr/bin/cmake -E cmake_link_script CMakeFiles/cmTC_136af.dir/link.txt --verbose=1
/usr/bin/c++        CMakeFiles/cmTC_136af.dir/feature_tests.cxx.o  -o cmTC_136af -rdynamic 
make[1] : on quitte le répertoire « /home/gaetan/Téléchargements/apitrace/build/CMakeFiles/CMakeTmp »


    Feature record: CXX_FEATURE:0cxx_aggregate_default_initializers
    Feature record: CXX_FEATURE:1cxx_alias_templates
    Feature record: CXX_FEATURE:1cxx_alignas
    Feature record: CXX_FEATURE:1cxx_alignof
    Feature record: CXX_FEATURE:1cxx_attributes
    Feature record: CXX_FEATURE:0cxx_attribute_deprecated
    Feature record: CXX_FEATURE:1cxx_auto_type
    Feature record: CXX_FEATURE:0cxx_binary_literals
    Feature record: CXX_FEATURE:1cxx_constexpr
    Feature record: CXX_FEATURE:0cxx_contextual_conversions
    Feature record: CXX_FEATURE:1cxx_decltype
    Feature record: CXX_FEATURE:0cxx_decltype_auto
    Feature record: CXX_FEATURE:1cxx_decltype_incomplete_return_types
    Feature record: CXX_FEATURE:1cxx_default_function_template_args
    Feature record: CXX_FEATURE:1cxx_defaulted_functions
    Feature record: CXX_FEATURE:1cxx_defaulted_move_initializers
    Feature record: CXX_FEATURE:1cxx_delegating_constructors
    Feature record: CXX_FEATURE:1cxx_deleted_functions
    Feature record: CXX_FEATURE:0cxx_digit_separators
    Feature record: CXX_FEATURE:1cxx_enum_forward_declarations
    Feature record: CXX_FEATURE:1cxx_explicit_conversions
    Feature record: CXX_FEATURE:1cxx_extended_friend_declarations
    Feature record: CXX_FEATURE:1cxx_extern_templates
    Feature record: CXX_FEATURE:1cxx_final
    Feature record: CXX_FEATURE:1cxx_func_identifier
    Feature record: CXX_FEATURE:1cxx_generalized_initializers
    Feature record: CXX_FEATURE:0cxx_generic_lambdas
    Feature record: CXX_FEATURE:1cxx_inheriting_constructors
    Feature record: CXX_FEATURE:1cxx_inline_namespaces
    Feature record: CXX_FEATURE:1cxx_lambdas
    Feature record: CXX_FEATURE:0cxx_lambda_init_captures
    Feature record: CXX_FEATURE:1cxx_local_type_template_args
    Feature record: CXX_FEATURE:1cxx_long_long_type
    Feature record: CXX_FEATURE:1cxx_noexcept
    Feature record: CXX_FEATURE:1cxx_nonstatic_member_init
    Feature record: CXX_FEATURE:1cxx_nullptr
    Feature record: CXX_FEATURE:1cxx_override
    Feature record: CXX_FEATURE:1cxx_range_for
    Feature record: CXX_FEATURE:1cxx_raw_string_literals
    Feature record: CXX_FEATURE:1cxx_reference_qualified_functions
    Feature record: CXX_FEATURE:0cxx_relaxed_constexpr
    Feature record: CXX_FEATURE:0cxx_return_type_deduction
    Feature record: CXX_FEATURE:1cxx_right_angle_brackets
    Feature record: CXX_FEATURE:1cxx_rvalue_references
    Feature record: CXX_FEATURE:1cxx_sizeof_member
    Feature record: CXX_FEATURE:1cxx_static_assert
    Feature record: CXX_FEATURE:1cxx_strong_enums
    Feature record: CXX_FEATURE:1cxx_template_template_parameters
    Feature record: CXX_FEATURE:1cxx_thread_local
    Feature record: CXX_FEATURE:1cxx_trailing_return_types
    Feature record: CXX_FEATURE:1cxx_unicode_literals
    Feature record: CXX_FEATURE:1cxx_uniform_initialization
    Feature record: CXX_FEATURE:1cxx_unrestricted_unions
    Feature record: CXX_FEATURE:1cxx_user_literals
    Feature record: CXX_FEATURE:0cxx_variable_templates
    Feature record: CXX_FEATURE:1cxx_variadic_macros
    Feature record: CXX_FEATURE:1cxx_variadic_templates


Detecting CXX [-std=c++98] compiler features compiled with the following output:
Change Dir: /home/gaetan/Téléchargements/apitrace/build/CMakeFiles/CMakeTmp

Run Build Command:"/usr/bin/make" "cmTC_20aca/fast"
/usr/bin/make -f CMakeFiles/cmTC_20aca.dir/build.make CMakeFiles/cmTC_20aca.dir/build
make[1] : on entre dans le répertoire « /home/gaetan/Téléchargements/apitrace/build/CMakeFiles/CMakeTmp »
Building CXX object CMakeFiles/cmTC_20aca.dir/feature_tests.cxx.o
/usr/bin/c++     -std=c++98 -o CMakeFiles/cmTC_20aca.dir/feature_tests.cxx.o -c /home/gaetan/Téléchargements/apitrace/build/CMakeFiles/feature_tests.cxx
Linking CXX executable cmTC_20aca
/usr/bin/cmake -E cmake_link_script CMakeFiles/cmTC_20aca.dir/link.txt --verbose=1
/usr/bin/c++        CMakeFiles/cmTC_20aca.dir/feature_tests.cxx.o  -o cmTC_20aca -rdynamic 
make[1] : on quitte le répertoire « /home/gaetan/Téléchargements/apitrace/build/CMakeFiles/CMakeTmp »


    Feature record: CXX_FEATURE:0cxx_aggregate_default_initializers
    Feature record: CXX_FEATURE:0cxx_alias_templates
    Feature record: CXX_FEATURE:0cxx_alignas
    Feature record: CXX_FEATURE:0cxx_alignof
    Feature record: CXX_FEATURE:0cxx_attributes
    Feature record: CXX_FEATURE:0cxx_attribute_deprecated
    Feature record: CXX_FEATURE:0cxx_auto_type
    Feature record: CXX_FEATURE:0cxx_binary_literals
    Feature record: CXX_FEATURE:0cxx_constexpr
    Feature record: CXX_FEATURE:0cxx_contextual_conversions
    Feature record: CXX_FEATURE:0cxx_decltype
    Feature record: CXX_FEATURE:0cxx_decltype_auto
    Feature record: CXX_FEATURE:0cxx_decltype_incomplete_return_types
    Feature record: CXX_FEATURE:0cxx_default_function_template_args
    Feature record: CXX_FEATURE:0cxx_defaulted_functions
    Feature record: CXX_FEATURE:0cxx_defaulted_move_initializers
    Feature record: CXX_FEATURE:0cxx_delegating_constructors
    Feature record: CXX_FEATURE:0cxx_deleted_functions
    Feature record: CXX_FEATURE:0cxx_digit_separators
    Feature record: CXX_FEATURE:0cxx_enum_forward_declarations
    Feature record: CXX_FEATURE:0cxx_explicit_conversions
    Feature record: CXX_FEATURE:0cxx_extended_friend_declarations
    Feature record: CXX_FEATURE:0cxx_extern_templates
    Feature record: CXX_FEATURE:0cxx_final
    Feature record: CXX_FEATURE:0cxx_func_identifier
    Feature record: CXX_FEATURE:0cxx_generalized_initializers
    Feature record: CXX_FEATURE:0cxx_generic_lambdas
    Feature record: CXX_FEATURE:0cxx_inheriting_constructors
    Feature record: CXX_FEATURE:0cxx_inline_namespaces
    Feature record: CXX_FEATURE:0cxx_lambdas
    Feature record: CXX_FEATURE:0cxx_lambda_init_captures
    Feature record: CXX_FEATURE:0cxx_local_type_template_args
    Feature record: CXX_FEATURE:0cxx_long_long_type
    Feature record: CXX_FEATURE:0cxx_noexcept
    Feature record: CXX_FEATURE:0cxx_nonstatic_member_init
    Feature record: CXX_FEATURE:0cxx_nullptr
    Feature record: CXX_FEATURE:0cxx_override
    Feature record: CXX_FEATURE:0cxx_range_for
    Feature record: CXX_FEATURE:0cxx_raw_string_literals
    Feature record: CXX_FEATURE:0cxx_reference_qualified_functions
    Feature record: CXX_FEATURE:0cxx_relaxed_constexpr
    Feature record: CXX_FEATURE:0cxx_return_type_deduction
    Feature record: CXX_FEATURE:0cxx_right_angle_brackets
    Feature record: CXX_FEATURE:0cxx_rvalue_references
    Feature record: CXX_FEATURE:0cxx_sizeof_member
    Feature record: CXX_FEATURE:0cxx_static_assert
    Feature record: CXX_FEATURE:0cxx_strong_enums
    Feature record: CXX_FEATURE:1cxx_template_template_parameters
    Feature record: CXX_FEATURE:0cxx_thread_local
    Feature record: CXX_FEATURE:0cxx_trailing_return_types
    Feature record: CXX_FEATURE:0cxx_unicode_literals
    Feature record: CXX_FEATURE:0cxx_uniform_initialization
    Feature record: CXX_FEATURE:0cxx_unrestricted_unions
    Feature record: CXX_FEATURE:0cxx_user_literals
    Feature record: CXX_FEATURE:0cxx_variable_templates
    Feature record: CXX_FEATURE:0cxx_variadic_macros
    Feature record: CXX_FEATURE:0cxx_variadic_templates
Performing C++ SOURCE FILE Test HAVE_COMPILER_TLS succeeded with the following output:
Change Dir: /home/gaetan/Téléchargements/apitrace/build/CMakeFiles/CMakeTmp

Run Build Command:"/usr/bin/make" "cmTC_0509c/fast"
/usr/bin/make -f CMakeFiles/cmTC_0509c.dir/build.make CMakeFiles/cmTC_0509c.dir/build
make[1] : on entre dans le répertoire « /home/gaetan/Téléchargements/apitrace/build/CMakeFiles/CMakeTmp »
Building CXX object CMakeFiles/cmTC_0509c.dir/src.cxx.o
/usr/bin/c++     -DHAVE_COMPILER_TLS   -o CMakeFiles/cmTC_0509c.dir/src.cxx.o -c /home/gaetan/Téléchargements/apitrace/build/CMakeFiles/CMakeTmp/src.cxx
Linking CXX executable cmTC_0509c
/usr/bin/cmake -E cmake_link_script CMakeFiles/cmTC_0509c.dir/link.txt --verbose=1
/usr/bin/c++    -DHAVE_COMPILER_TLS    CMakeFiles/cmTC_0509c.dir/src.cxx.o  -o cmTC_0509c -rdynamic 
make[1] : on quitte le répertoire « /home/gaetan/Téléchargements/apitrace/build/CMakeFiles/CMakeTmp »

Source file was:
__thread int i; int main() { return 0; }
Determining if the include file pthread.h exists passed with the following output:
Change Dir: /home/gaetan/Téléchargements/apitrace/build/CMakeFiles/CMakeTmp

Run Build Command:"/usr/bin/make" "cmTC_67da4/fast"
/usr/bin/make -f CMakeFiles/cmTC_67da4.dir/build.make CMakeFiles/cmTC_67da4.dir/build
make[1] : on entre dans le répertoire « /home/gaetan/Téléchargements/apitrace/build/CMakeFiles/CMakeTmp »
Building C object CMakeFiles/cmTC_67da4.dir/CheckIncludeFile.c.o
/usr/bin/cc     -o CMakeFiles/cmTC_67da4.dir/CheckIncludeFile.c.o   -c /home/gaetan/Téléchargements/apitrace/build/CMakeFiles/CMakeTmp/CheckIncludeFile.c
Linking C executable cmTC_67da4
/usr/bin/cmake -E cmake_link_script CMakeFiles/cmTC_67da4.dir/link.txt --verbose=1
/usr/bin/cc       CMakeFiles/cmTC_67da4.dir/CheckIncludeFile.c.o  -o cmTC_67da4 -rdynamic 
make[1] : on quitte le répertoire « /home/gaetan/Téléchargements/apitrace/build/CMakeFiles/CMakeTmp »


Determining if the function pthread_create exists in the pthread passed with the following output:
Change Dir: /home/gaetan/Téléchargements/apitrace/build/CMakeFiles/CMakeTmp

Run Build Command:"/usr/bin/make" "cmTC_ad109/fast"
/usr/bin/make -f CMakeFiles/cmTC_ad109.dir/build.make CMakeFiles/cmTC_ad109.dir/build
make[1] : on entre dans le répertoire « /home/gaetan/Téléchargements/apitrace/build/CMakeFiles/CMakeTmp »
Building C object CMakeFiles/cmTC_ad109.dir/CheckFunctionExists.c.o
/usr/bin/cc    -DCHECK_FUNCTION_EXISTS=pthread_create   -o CMakeFiles/cmTC_ad109.dir/CheckFunctionExists.c.o   -c /usr/share/cmake-3.5/Modules/CheckFunctionExists.c
Linking C executable cmTC_ad109
/usr/bin/cmake -E cmake_link_script CMakeFiles/cmTC_ad109.dir/link.txt --verbose=1
/usr/bin/cc   -DCHECK_FUNCTION_EXISTS=pthread_create    CMakeFiles/cmTC_ad109.dir/CheckFunctionExists.c.o  -o cmTC_ad109 -rdynamic -lpthread 
make[1] : on quitte le répertoire « /home/gaetan/Téléchargements/apitrace/build/CMakeFiles/CMakeTmp »


Determining if the function XOpenDisplay exists in the /usr/lib64/libX11.so;/usr/lib64/libXext.so passed with the following output:
Change Dir: /home/gaetan/Téléchargements/apitrace/build/CMakeFiles/CMakeTmp

Run Build Command:"/usr/bin/make" "cmTC_36403/fast"
/usr/bin/make -f CMakeFiles/cmTC_36403.dir/build.make CMakeFiles/cmTC_36403.dir/build
make[1] : on entre dans le répertoire « /home/gaetan/Téléchargements/apitrace/build/CMakeFiles/CMakeTmp »
Building C object CMakeFiles/cmTC_36403.dir/CheckFunctionExists.c.o
/usr/bin/cc    -DCHECK_FUNCTION_EXISTS=XOpenDisplay   -o CMakeFiles/cmTC_36403.dir/CheckFunctionExists.c.o   -c /usr/share/cmake-3.5/Modules/CheckFunctionExists.c
Linking C executable cmTC_36403
/usr/bin/cmake -E cmake_link_script CMakeFiles/cmTC_36403.dir/link.txt --verbose=1
/usr/bin/cc   -DCHECK_FUNCTION_EXISTS=XOpenDisplay    CMakeFiles/cmTC_36403.dir/CheckFunctionExists.c.o  -o cmTC_36403 -rdynamic /usr/lib64/libX11.so /usr/lib64/libXext.so 
make[1] : on quitte le répertoire « /home/gaetan/Téléchargements/apitrace/build/CMakeFiles/CMakeTmp »


Determining if the function gethostbyname exists passed with the following output:
Change Dir: /home/gaetan/Téléchargements/apitrace/build/CMakeFiles/CMakeTmp

Run Build Command:"/usr/bin/make" "cmTC_fa3c6/fast"
/usr/bin/make -f CMakeFiles/cmTC_fa3c6.dir/build.make CMakeFiles/cmTC_fa3c6.dir/build
make[1] : on entre dans le répertoire « /home/gaetan/Téléchargements/apitrace/build/CMakeFiles/CMakeTmp »
Building C object CMakeFiles/cmTC_fa3c6.dir/CheckFunctionExists.c.o
/usr/bin/cc    -DCHECK_FUNCTION_EXISTS=gethostbyname   -o CMakeFiles/cmTC_fa3c6.dir/CheckFunctionExists.c.o   -c /usr/share/cmake-3.5/Modules/CheckFunctionExists.c
Linking C executable cmTC_fa3c6
/usr/bin/cmake -E cmake_link_script CMakeFiles/cmTC_fa3c6.dir/link.txt --verbose=1
/usr/bin/cc   -DCHECK_FUNCTION_EXISTS=gethostbyname    CMakeFiles/cmTC_fa3c6.dir/CheckFunctionExists.c.o  -o cmTC_fa3c6 -rdynamic 
make[1] : on quitte le répertoire « /home/gaetan/Téléchargements/apitrace/build/CMakeFiles/CMakeTmp »


Determining if the function connect exists passed with the following output:
Change Dir: /home/gaetan/Téléchargements/apitrace/build/CMakeFiles/CMakeTmp

Run Build Command:"/usr/bin/make" "cmTC_7a69d/fast"
/usr/bin/make -f CMakeFiles/cmTC_7a69d.dir/build.make CMakeFiles/cmTC_7a69d.dir/build
make[1] : on entre dans le répertoire « /home/gaetan/Téléchargements/apitrace/build/CMakeFiles/CMakeTmp »
Building C object CMakeFiles/cmTC_7a69d.dir/CheckFunctionExists.c.o
/usr/bin/cc    -DCHECK_FUNCTION_EXISTS=connect   -o CMakeFiles/cmTC_7a69d.dir/CheckFunctionExists.c.o   -c /usr/share/cmake-3.5/Modules/CheckFunctionExists.c
Linking C executable cmTC_7a69d
/usr/bin/cmake -E cmake_link_script CMakeFiles/cmTC_7a69d.dir/link.txt --verbose=1
/usr/bin/cc   -DCHECK_FUNCTION_EXISTS=connect    CMakeFiles/cmTC_7a69d.dir/CheckFunctionExists.c.o  -o cmTC_7a69d -rdynamic 
make[1] : on quitte le répertoire « /home/gaetan/Téléchargements/apitrace/build/CMakeFiles/CMakeTmp »


Determining if the function remove exists passed with the following output:
Change Dir: /home/gaetan/Téléchargements/apitrace/build/CMakeFiles/CMakeTmp

Run Build Command:"/usr/bin/make" "cmTC_a8f56/fast"
/usr/bin/make -f CMakeFiles/cmTC_a8f56.dir/build.make CMakeFiles/cmTC_a8f56.dir/build
make[1] : on entre dans le répertoire « /home/gaetan/Téléchargements/apitrace/build/CMakeFiles/CMakeTmp »
Building C object CMakeFiles/cmTC_a8f56.dir/CheckFunctionExists.c.o
/usr/bin/cc    -DCHECK_FUNCTION_EXISTS=remove   -o CMakeFiles/cmTC_a8f56.dir/CheckFunctionExists.c.o   -c /usr/share/cmake-3.5/Modules/CheckFunctionExists.c
Linking C executable cmTC_a8f56
/usr/bin/cmake -E cmake_link_script CMakeFiles/cmTC_a8f56.dir/link.txt --verbose=1
/usr/bin/cc   -DCHECK_FUNCTION_EXISTS=remove    CMakeFiles/cmTC_a8f56.dir/CheckFunctionExists.c.o  -o cmTC_a8f56 -rdynamic 
make[1] : on quitte le répertoire « /home/gaetan/Téléchargements/apitrace/build/CMakeFiles/CMakeTmp »


Determining if the function shmat exists passed with the following output:
Change Dir: /home/gaetan/Téléchargements/apitrace/build/CMakeFiles/CMakeTmp

Run Build Command:"/usr/bin/make" "cmTC_3e93e/fast"
/usr/bin/make -f CMakeFiles/cmTC_3e93e.dir/build.make CMakeFiles/cmTC_3e93e.dir/build
make[1] : on entre dans le répertoire « /home/gaetan/Téléchargements/apitrace/build/CMakeFiles/CMakeTmp »
Building C object CMakeFiles/cmTC_3e93e.dir/CheckFunctionExists.c.o
/usr/bin/cc    -DCHECK_FUNCTION_EXISTS=shmat   -o CMakeFiles/cmTC_3e93e.dir/CheckFunctionExists.c.o   -c /usr/share/cmake-3.5/Modules/CheckFunctionExists.c
Linking C executable cmTC_3e93e
/usr/bin/cmake -E cmake_link_script CMakeFiles/cmTC_3e93e.dir/link.txt --verbose=1
/usr/bin/cc   -DCHECK_FUNCTION_EXISTS=shmat    CMakeFiles/cmTC_3e93e.dir/CheckFunctionExists.c.o  -o cmTC_3e93e -rdynamic 
make[1] : on quitte le répertoire « /home/gaetan/Téléchargements/apitrace/build/CMakeFiles/CMakeTmp »


Determining if the function IceConnectionNumber exists in the ICE passed with the following output:
Change Dir: /home/gaetan/Téléchargements/apitrace/build/CMakeFiles/CMakeTmp

Run Build Command:"/usr/bin/make" "cmTC_59171/fast"
/usr/bin/make -f CMakeFiles/cmTC_59171.dir/build.make CMakeFiles/cmTC_59171.dir/build
make[1] : on entre dans le répertoire « /home/gaetan/Téléchargements/apitrace/build/CMakeFiles/CMakeTmp »
Building C object CMakeFiles/cmTC_59171.dir/CheckFunctionExists.c.o
/usr/bin/cc    -DCHECK_FUNCTION_EXISTS=IceConnectionNumber   -o CMakeFiles/cmTC_59171.dir/CheckFunctionExists.c.o   -c /usr/share/cmake-3.5/Modules/CheckFunctionExists.c
Linking C executable cmTC_59171
/usr/bin/cmake -E cmake_link_script CMakeFiles/cmTC_59171.dir/link.txt --verbose=1
/usr/bin/cc   -DCHECK_FUNCTION_EXISTS=IceConnectionNumber    CMakeFiles/cmTC_59171.dir/CheckFunctionExists.c.o  -o cmTC_59171 -rdynamic -lICE 
make[1] : on quitte le répertoire « /home/gaetan/Téléchargements/apitrace/build/CMakeFiles/CMakeTmp »


Performing C++ SOURCE FILE Test CXX_COMPILER_FLAG_VISIBILITY succeeded with the following output:
Change Dir: /home/gaetan/Téléchargements/apitrace/build/CMakeFiles/CMakeTmp

Run Build Command:"/usr/bin/make" "cmTC_70e24/fast"
/usr/bin/make -f CMakeFiles/cmTC_70e24.dir/build.make CMakeFiles/cmTC_70e24.dir/build
make[1]: Entering directory '/home/gaetan/Téléchargements/apitrace/build/CMakeFiles/CMakeTmp'
Building CXX object CMakeFiles/cmTC_70e24.dir/src.cxx.o
/usr/bin/c++     -DCXX_COMPILER_FLAG_VISIBILITY   -fvisibility=hidden -o CMakeFiles/cmTC_70e24.dir/src.cxx.o -c /home/gaetan/Téléchargements/apitrace/build/CMakeFiles/CMakeTmp/src.cxx
Linking CXX executable cmTC_70e24
/usr/bin/cmake -E cmake_link_script CMakeFiles/cmTC_70e24.dir/link.txt --verbose=1
/usr/bin/c++    -DCXX_COMPILER_FLAG_VISIBILITY    CMakeFiles/cmTC_70e24.dir/src.cxx.o  -o cmTC_70e24 -rdynamic 
make[1]: Leaving directory '/home/gaetan/Téléchargements/apitrace/build/CMakeFiles/CMakeTmp'

Source file was:
int main() { return 0; }
Performing C++ SOURCE FILE Test CXX_COMPILER_FLAG_STD_GNUXX11 succeeded with the following output:
Change Dir: /home/gaetan/Téléchargements/apitrace/build/CMakeFiles/CMakeTmp

Run Build Command:"/usr/bin/make" "cmTC_0df64/fast"
/usr/bin/make -f CMakeFiles/cmTC_0df64.dir/build.make CMakeFiles/cmTC_0df64.dir/build
make[1]: Entering directory '/home/gaetan/Téléchargements/apitrace/build/CMakeFiles/CMakeTmp'
Building CXX object CMakeFiles/cmTC_0df64.dir/src.cxx.o
/usr/bin/c++     -fvisibility=hidden -DCXX_COMPILER_FLAG_STD_GNUXX11   -std=gnu++11 -o CMakeFiles/cmTC_0df64.dir/src.cxx.o -c /home/gaetan/Téléchargements/apitrace/build/CMakeFiles/CMakeTmp/src.cxx
Linking CXX executable cmTC_0df64
/usr/bin/cmake -E cmake_link_script CMakeFiles/cmTC_0df64.dir/link.txt --verbose=1
/usr/bin/c++    -fvisibility=hidden -DCXX_COMPILER_FLAG_STD_GNUXX11    CMakeFiles/cmTC_0df64.dir/src.cxx.o  -o cmTC_0df64 -rdynamic 
make[1]: Leaving directory '/home/gaetan/Téléchargements/apitrace/build/CMakeFiles/CMakeTmp'

Source file was:
int main() { return 0; }
Determining if the include file sys/types.h exists passed with the following output:
Change Dir: /home/gaetan/Téléchargements/apitrace/build/CMakeFiles/CMakeTmp

Run Build Command:"/usr/bin/make" "cmTC_21074/fast"
/usr/bin/make -f CMakeFiles/cmTC_21074.dir/build.make CMakeFiles/cmTC_21074.dir/build
make[1] : on entre dans le répertoire « /home/gaetan/Téléchargements/apitrace/build/CMakeFiles/CMakeTmp »
Building C object CMakeFiles/cmTC_21074.dir/CheckIncludeFile.c.o
/usr/bin/cc    -fvisibility=hidden -Wall -Wno-sign-compare -fno-strict-aliasing -fmessage-length=0 -fno-omit-frame-pointer    -o CMakeFiles/cmTC_21074.dir/CheckIncludeFile.c.o   -c /home/gaetan/Téléchargements/apitrace/build/CMakeFiles/CMakeTmp/CheckIncludeFile.c
Linking C executable cmTC_21074
/usr/bin/cmake -E cmake_link_script CMakeFiles/cmTC_21074.dir/link.txt --verbose=1
/usr/bin/cc   -fvisibility=hidden -Wall -Wno-sign-compare -fno-strict-aliasing -fmessage-length=0 -fno-omit-frame-pointer     CMakeFiles/cmTC_21074.dir/CheckIncludeFile.c.o  -o cmTC_21074 -rdynamic 
make[1] : on quitte le répertoire « /home/gaetan/Téléchargements/apitrace/build/CMakeFiles/CMakeTmp »


Determining if the include file stdint.h exists passed with the following output:
Change Dir: /home/gaetan/Téléchargements/apitrace/build/CMakeFiles/CMakeTmp

Run Build Command:"/usr/bin/make" "cmTC_43cef/fast"
/usr/bin/make -f CMakeFiles/cmTC_43cef.dir/build.make CMakeFiles/cmTC_43cef.dir/build
make[1] : on entre dans le répertoire « /home/gaetan/Téléchargements/apitrace/build/CMakeFiles/CMakeTmp »
Building C object CMakeFiles/cmTC_43cef.dir/CheckIncludeFile.c.o
/usr/bin/cc    -fvisibility=hidden -Wall -Wno-sign-compare -fno-strict-aliasing -fmessage-length=0 -fno-omit-frame-pointer    -o CMakeFiles/cmTC_43cef.dir/CheckIncludeFile.c.o   -c /home/gaetan/Téléchargements/apitrace/build/CMakeFiles/CMakeTmp/CheckIncludeFile.c
Linking C executable cmTC_43cef
/usr/bin/cmake -E cmake_link_script CMakeFiles/cmTC_43cef.dir/link.txt --verbose=1
/usr/bin/cc   -fvisibility=hidden -Wall -Wno-sign-compare -fno-strict-aliasing -fmessage-length=0 -fno-omit-frame-pointer     CMakeFiles/cmTC_43cef.dir/CheckIncludeFile.c.o  -o cmTC_43cef -rdynamic 
make[1] : on quitte le répertoire « /home/gaetan/Téléchargements/apitrace/build/CMakeFiles/CMakeTmp »


Determining if the include file stddef.h exists passed with the following output:
Change Dir: /home/gaetan/Téléchargements/apitrace/build/CMakeFiles/CMakeTmp

Run Build Command:"/usr/bin/make" "cmTC_49061/fast"
/usr/bin/make -f CMakeFiles/cmTC_49061.dir/build.make CMakeFiles/cmTC_49061.dir/build
make[1] : on entre dans le répertoire « /home/gaetan/Téléchargements/apitrace/build/CMakeFiles/CMakeTmp »
Building C object CMakeFiles/cmTC_49061.dir/CheckIncludeFile.c.o
/usr/bin/cc    -fvisibility=hidden -Wall -Wno-sign-compare -fno-strict-aliasing -fmessage-length=0 -fno-omit-frame-pointer    -o CMakeFiles/cmTC_49061.dir/CheckIncludeFile.c.o   -c /home/gaetan/Téléchargements/apitrace/build/CMakeFiles/CMakeTmp/CheckIncludeFile.c
Linking C executable cmTC_49061
/usr/bin/cmake -E cmake_link_script CMakeFiles/cmTC_49061.dir/link.txt --verbose=1
/usr/bin/cc   -fvisibility=hidden -Wall -Wno-sign-compare -fno-strict-aliasing -fmessage-length=0 -fno-omit-frame-pointer     CMakeFiles/cmTC_49061.dir/CheckIncludeFile.c.o  -o cmTC_49061 -rdynamic 
make[1] : on quitte le répertoire « /home/gaetan/Téléchargements/apitrace/build/CMakeFiles/CMakeTmp »


Determining size of unsigned short passed with the following output:
Change Dir: /home/gaetan/Téléchargements/apitrace/build/CMakeFiles/CMakeTmp

Run Build Command:"/usr/bin/make" "cmTC_2a80c/fast"
/usr/bin/make -f CMakeFiles/cmTC_2a80c.dir/build.make CMakeFiles/cmTC_2a80c.dir/build
make[1] : on entre dans le répertoire « /home/gaetan/Téléchargements/apitrace/build/CMakeFiles/CMakeTmp »
Building C object CMakeFiles/cmTC_2a80c.dir/CMAKE_SIZEOF_UNSIGNED_SHORT.c.o
/usr/bin/cc    -fvisibility=hidden -Wall -Wno-sign-compare -fno-strict-aliasing -fmessage-length=0 -fno-omit-frame-pointer    -o CMakeFiles/cmTC_2a80c.dir/CMAKE_SIZEOF_UNSIGNED_SHORT.c.o   -c /home/gaetan/Téléchargements/apitrace/build/CMakeFiles/CheckTypeSize/CMAKE_SIZEOF_UNSIGNED_SHORT.c
Linking C executable cmTC_2a80c
/usr/bin/cmake -E cmake_link_script CMakeFiles/cmTC_2a80c.dir/link.txt --verbose=1
/usr/bin/cc   -fvisibility=hidden -Wall -Wno-sign-compare -fno-strict-aliasing -fmessage-length=0 -fno-omit-frame-pointer     CMakeFiles/cmTC_2a80c.dir/CMAKE_SIZEOF_UNSIGNED_SHORT.c.o  -o cmTC_2a80c -rdynamic 
make[1] : on quitte le répertoire « /home/gaetan/Téléchargements/apitrace/build/CMakeFiles/CMakeTmp »


Determining if the _Unwind_Backtrace exist passed with the following output:
Change Dir: /home/gaetan/Téléchargements/apitrace/build/CMakeFiles/CMakeTmp

Run Build Command:"/usr/bin/make" "cmTC_14ed4/fast"
/usr/bin/make -f CMakeFiles/cmTC_14ed4.dir/build.make CMakeFiles/cmTC_14ed4.dir/build
make[1] : on entre dans le répertoire « /home/gaetan/Téléchargements/apitrace/build/CMakeFiles/CMakeTmp »
Building C object CMakeFiles/cmTC_14ed4.dir/CheckSymbolExists.c.o
/usr/bin/cc    -fvisibility=hidden -Wall -Wno-sign-compare -fno-strict-aliasing -fmessage-length=0 -fno-omit-frame-pointer    -o CMakeFiles/cmTC_14ed4.dir/CheckSymbolExists.c.o   -c /home/gaetan/Téléchargements/apitrace/build/CMakeFiles/CMakeTmp/CheckSymbolExists.c
Linking C executable cmTC_14ed4
/usr/bin/cmake -E cmake_link_script CMakeFiles/cmTC_14ed4.dir/link.txt --verbose=1
/usr/bin/cc   -fvisibility=hidden -Wall -Wno-sign-compare -fno-strict-aliasing -fmessage-length=0 -fno-omit-frame-pointer     CMakeFiles/cmTC_14ed4.dir/CheckSymbolExists.c.o  -o cmTC_14ed4 -rdynamic 
make[1] : on quitte le répertoire « /home/gaetan/Téléchargements/apitrace/build/CMakeFiles/CMakeTmp »

File /home/gaetan/Téléchargements/apitrace/build/CMakeFiles/CMakeTmp/CheckSymbolExists.c:
/* */
#include <unwind.h>

int main(int argc, char** argv)
{
  (void)argv;
#ifndef _Unwind_Backtrace
  return ((int*)(&_Unwind_Backtrace))[argc];
#else
  (void)argc;
  return 0;
#endif
}

Determining if the _Unwind_GetIPInfo exist passed with the following output:
Change Dir: /home/gaetan/Téléchargements/apitrace/build/CMakeFiles/CMakeTmp

Run Build Command:"/usr/bin/make" "cmTC_06fdd/fast"
/usr/bin/make -f CMakeFiles/cmTC_06fdd.dir/build.make CMakeFiles/cmTC_06fdd.dir/build
make[1] : on entre dans le répertoire « /home/gaetan/Téléchargements/apitrace/build/CMakeFiles/CMakeTmp »
Building C object CMakeFiles/cmTC_06fdd.dir/CheckSymbolExists.c.o
/usr/bin/cc    -fvisibility=hidden -Wall -Wno-sign-compare -fno-strict-aliasing -fmessage-length=0 -fno-omit-frame-pointer    -o CMakeFiles/cmTC_06fdd.dir/CheckSymbolExists.c.o   -c /home/gaetan/Téléchargements/apitrace/build/CMakeFiles/CMakeTmp/CheckSymbolExists.c
Linking C executable cmTC_06fdd
/usr/bin/cmake -E cmake_link_script CMakeFiles/cmTC_06fdd.dir/link.txt --verbose=1
/usr/bin/cc   -fvisibility=hidden -Wall -Wno-sign-compare -fno-strict-aliasing -fmessage-length=0 -fno-omit-frame-pointer     CMakeFiles/cmTC_06fdd.dir/CheckSymbolExists.c.o  -o cmTC_06fdd -rdynamic 
make[1] : on quitte le répertoire « /home/gaetan/Téléchargements/apitrace/build/CMakeFiles/CMakeTmp »

File /home/gaetan/Téléchargements/apitrace/build/CMakeFiles/CMakeTmp/CheckSymbolExists.c:
/* */
#include <unwind.h>

int main(int argc, char** argv)
{
  (void)argv;
#ifndef _Unwind_GetIPInfo
  return ((int*)(&_Unwind_GetIPInfo))[argc];
#else
  (void)argc;
  return 0;
#endif
}

Performing C SOURCE FILE Test FLAG_UNWIND_TABLES succeeded with the following output:
Change Dir: /home/gaetan/Téléchargements/apitrace/build/CMakeFiles/CMakeTmp

Run Build Command:"/usr/bin/make" "cmTC_e7b62/fast"
/usr/bin/make -f CMakeFiles/cmTC_e7b62.dir/build.make CMakeFiles/cmTC_e7b62.dir/build
make[1]: Entering directory '/home/gaetan/Téléchargements/apitrace/build/CMakeFiles/CMakeTmp'
Building C object CMakeFiles/cmTC_e7b62.dir/src.c.o
/usr/bin/cc    -fvisibility=hidden -Wall -Wno-sign-compare -fno-strict-aliasing -fmessage-length=0 -fno-omit-frame-pointer -DFLAG_UNWIND_TABLES   -funwind-tables -o CMakeFiles/cmTC_e7b62.dir/src.c.o   -c /home/gaetan/Téléchargements/apitrace/build/CMakeFiles/CMakeTmp/src.c
Linking C executable cmTC_e7b62
/usr/bin/cmake -E cmake_link_script CMakeFiles/cmTC_e7b62.dir/link.txt --verbose=1
/usr/bin/cc   -fvisibility=hidden -Wall -Wno-sign-compare -fno-strict-aliasing -fmessage-length=0 -fno-omit-frame-pointer -DFLAG_UNWIND_TABLES    CMakeFiles/cmTC_e7b62.dir/src.c.o  -o cmTC_e7b62 -rdynamic 
make[1]: Leaving directory '/home/gaetan/Téléchargements/apitrace/build/CMakeFiles/CMakeTmp'

Source file was:
int main(void) { return 0; }
Performing C SOURCE FILE Test HAVE_SYNC_FUNCTIONS succeeded with the following output:
Change Dir: /home/gaetan/Téléchargements/apitrace/build/CMakeFiles/CMakeTmp

Run Build Command:"/usr/bin/make" "cmTC_d863b/fast"
/usr/bin/make -f CMakeFiles/cmTC_d863b.dir/build.make CMakeFiles/cmTC_d863b.dir/build
make[1] : on entre dans le répertoire « /home/gaetan/Téléchargements/apitrace/build/CMakeFiles/CMakeTmp »
Building C object CMakeFiles/cmTC_d863b.dir/src.c.o
/usr/bin/cc    -fvisibility=hidden -Wall -Wno-sign-compare -fno-strict-aliasing -fmessage-length=0 -fno-omit-frame-pointer -DHAVE_SYNC_FUNCTIONS   -o CMakeFiles/cmTC_d863b.dir/src.c.o   -c /home/gaetan/Téléchargements/apitrace/build/CMakeFiles/CMakeTmp/src.c
Linking C executable cmTC_d863b
/usr/bin/cmake -E cmake_link_script CMakeFiles/cmTC_d863b.dir/link.txt --verbose=1
/usr/bin/cc   -fvisibility=hidden -Wall -Wno-sign-compare -fno-strict-aliasing -fmessage-length=0 -fno-omit-frame-pointer -DHAVE_SYNC_FUNCTIONS    CMakeFiles/cmTC_d863b.dir/src.c.o  -o cmTC_d863b -rdynamic 
make[1] : on quitte le répertoire « /home/gaetan/Téléchargements/apitrace/build/CMakeFiles/CMakeTmp »

Source file was:
int i;
    int main() {
    __sync_bool_compare_and_swap (&i, i, i);
    __sync_lock_test_and_set (&i, 1);
    __sync_lock_release (&i);}
Performing C SOURCE FILE Test HAVE_ATOMIC_FUNCTIONS succeeded with the following output:
Change Dir: /home/gaetan/Téléchargements/apitrace/build/CMakeFiles/CMakeTmp

Run Build Command:"/usr/bin/make" "cmTC_840d6/fast"
/usr/bin/make -f CMakeFiles/cmTC_840d6.dir/build.make CMakeFiles/cmTC_840d6.dir/build
make[1] : on entre dans le répertoire « /home/gaetan/Téléchargements/apitrace/build/CMakeFiles/CMakeTmp »
Building C object CMakeFiles/cmTC_840d6.dir/src.c.o
/usr/bin/cc    -fvisibility=hidden -Wall -Wno-sign-compare -fno-strict-aliasing -fmessage-length=0 -fno-omit-frame-pointer -DHAVE_ATOMIC_FUNCTIONS   -o CMakeFiles/cmTC_840d6.dir/src.c.o   -c /home/gaetan/Téléchargements/apitrace/build/CMakeFiles/CMakeTmp/src.c
Linking C executable cmTC_840d6
/usr/bin/cmake -E cmake_link_script CMakeFiles/cmTC_840d6.dir/link.txt --verbose=1
/usr/bin/cc   -fvisibility=hidden -Wall -Wno-sign-compare -fno-strict-aliasing -fmessage-length=0 -fno-omit-frame-pointer -DHAVE_ATOMIC_FUNCTIONS    CMakeFiles/cmTC_840d6.dir/src.c.o  -o cmTC_840d6 -rdynamic 
make[1] : on quitte le répertoire « /home/gaetan/Téléchargements/apitrace/build/CMakeFiles/CMakeTmp »

Source file was:
int i;
    int main() {
    __atomic_load_n (&i, __ATOMIC_ACQUIRE);
    __atomic_store_n (&i, i, __ATOMIC_RELEASE);}
Determining if the mmap exist passed with the following output:
Change Dir: /home/gaetan/Téléchargements/apitrace/build/CMakeFiles/CMakeTmp

Run Build Command:"/usr/bin/make" "cmTC_e572e/fast"
/usr/bin/make -f CMakeFiles/cmTC_e572e.dir/build.make CMakeFiles/cmTC_e572e.dir/build
make[1] : on entre dans le répertoire « /home/gaetan/Téléchargements/apitrace/build/CMakeFiles/CMakeTmp »
Building C object CMakeFiles/cmTC_e572e.dir/CheckSymbolExists.c.o
/usr/bin/cc    -fvisibility=hidden -Wall -Wno-sign-compare -fno-strict-aliasing -fmessage-length=0 -fno-omit-frame-pointer    -o CMakeFiles/cmTC_e572e.dir/CheckSymbolExists.c.o   -c /home/gaetan/Téléchargements/apitrace/build/CMakeFiles/CMakeTmp/CheckSymbolExists.c
Linking C executable cmTC_e572e
/usr/bin/cmake -E cmake_link_script CMakeFiles/cmTC_e572e.dir/link.txt --verbose=1
/usr/bin/cc   -fvisibility=hidden -Wall -Wno-sign-compare -fno-strict-aliasing -fmessage-length=0 -fno-omit-frame-pointer     CMakeFiles/cmTC_e572e.dir/CheckSymbolExists.c.o  -o cmTC_e572e -rdynamic 
make[1] : on quitte le répertoire « /home/gaetan/Téléchargements/apitrace/build/CMakeFiles/CMakeTmp »

File /home/gaetan/Téléchargements/apitrace/build/CMakeFiles/CMakeTmp/CheckSymbolExists.c:
/* */
#include <sys/mman.h>

int main(int argc, char** argv)
{
  (void)argv;
#ifndef mmap
  return ((int*)(&mmap))[argc];
#else
  (void)argc;
  return 0;
#endif
}

Determining if the MAP_ANONYMOUS exist passed with the following output:
Change Dir: /home/gaetan/Téléchargements/apitrace/build/CMakeFiles/CMakeTmp

Run Build Command:"/usr/bin/make" "cmTC_69e0f/fast"
/usr/bin/make -f CMakeFiles/cmTC_69e0f.dir/build.make CMakeFiles/cmTC_69e0f.dir/build
make[1] : on entre dans le répertoire « /home/gaetan/Téléchargements/apitrace/build/CMakeFiles/CMakeTmp »
Building C object CMakeFiles/cmTC_69e0f.dir/CheckSymbolExists.c.o
/usr/bin/cc    -fvisibility=hidden -Wall -Wno-sign-compare -fno-strict-aliasing -fmessage-length=0 -fno-omit-frame-pointer    -o CMakeFiles/cmTC_69e0f.dir/CheckSymbolExists.c.o   -c /home/gaetan/Téléchargements/apitrace/build/CMakeFiles/CMakeTmp/CheckSymbolExists.c
Linking C executable cmTC_69e0f
/usr/bin/cmake -E cmake_link_script CMakeFiles/cmTC_69e0f.dir/link.txt --verbose=1
/usr/bin/cc   -fvisibility=hidden -Wall -Wno-sign-compare -fno-strict-aliasing -fmessage-length=0 -fno-omit-frame-pointer     CMakeFiles/cmTC_69e0f.dir/CheckSymbolExists.c.o  -o cmTC_69e0f -rdynamic 
make[1] : on quitte le répertoire « /home/gaetan/Téléchargements/apitrace/build/CMakeFiles/CMakeTmp »

File /home/gaetan/Téléchargements/apitrace/build/CMakeFiles/CMakeTmp/CheckSymbolExists.c:
/* */
#include <sys/mman.h>

int main(int argc, char** argv)
{
  (void)argv;
#ifndef MAP_ANONYMOUS
  return ((int*)(&MAP_ANONYMOUS))[argc];
#else
  (void)argc;
  return 0;
#endif
}

Determining if the MAP_ANON exist passed with the following output:
Change Dir: /home/gaetan/Téléchargements/apitrace/build/CMakeFiles/CMakeTmp

Run Build Command:"/usr/bin/make" "cmTC_16a44/fast"
/usr/bin/make -f CMakeFiles/cmTC_16a44.dir/build.make CMakeFiles/cmTC_16a44.dir/build
make[1] : on entre dans le répertoire « /home/gaetan/Téléchargements/apitrace/build/CMakeFiles/CMakeTmp »
Building C object CMakeFiles/cmTC_16a44.dir/CheckSymbolExists.c.o
/usr/bin/cc    -fvisibility=hidden -Wall -Wno-sign-compare -fno-strict-aliasing -fmessage-length=0 -fno-omit-frame-pointer    -o CMakeFiles/cmTC_16a44.dir/CheckSymbolExists.c.o   -c /home/gaetan/Téléchargements/apitrace/build/CMakeFiles/CMakeTmp/CheckSymbolExists.c
Linking C executable cmTC_16a44
/usr/bin/cmake -E cmake_link_script CMakeFiles/cmTC_16a44.dir/link.txt --verbose=1
/usr/bin/cc   -fvisibility=hidden -Wall -Wno-sign-compare -fno-strict-aliasing -fmessage-length=0 -fno-omit-frame-pointer     CMakeFiles/cmTC_16a44.dir/CheckSymbolExists.c.o  -o cmTC_16a44 -rdynamic 
make[1] : on quitte le répertoire « /home/gaetan/Téléchargements/apitrace/build/CMakeFiles/CMakeTmp »

File /home/gaetan/Téléchargements/apitrace/build/CMakeFiles/CMakeTmp/CheckSymbolExists.c:
/* */
#include <sys/mman.h>

int main(int argc, char** argv)
{
  (void)argv;
#ifndef MAP_ANON
  return ((int*)(&MAP_ANON))[argc];
#else
  (void)argc;
  return 0;
#endif
}

Determining if the dl_iterate_phdr exist passed with the following output:
Change Dir: /home/gaetan/Téléchargements/apitrace/build/CMakeFiles/CMakeTmp

Run Build Command:"/usr/bin/make" "cmTC_95947/fast"
/usr/bin/make -f CMakeFiles/cmTC_95947.dir/build.make CMakeFiles/cmTC_95947.dir/build
make[1] : on entre dans le répertoire « /home/gaetan/Téléchargements/apitrace/build/CMakeFiles/CMakeTmp »
Building C object CMakeFiles/cmTC_95947.dir/CheckSymbolExists.c.o
/usr/bin/cc  -D_GNU_SOURCE  -fvisibility=hidden -Wall -Wno-sign-compare -fno-strict-aliasing -fmessage-length=0 -fno-omit-frame-pointer    -o CMakeFiles/cmTC_95947.dir/CheckSymbolExists.c.o   -c /home/gaetan/Téléchargements/apitrace/build/CMakeFiles/CMakeTmp/CheckSymbolExists.c
Linking C executable cmTC_95947
/usr/bin/cmake -E cmake_link_script CMakeFiles/cmTC_95947.dir/link.txt --verbose=1
/usr/bin/cc   -fvisibility=hidden -Wall -Wno-sign-compare -fno-strict-aliasing -fmessage-length=0 -fno-omit-frame-pointer     CMakeFiles/cmTC_95947.dir/CheckSymbolExists.c.o  -o cmTC_95947 -rdynamic 
make[1] : on quitte le répertoire « /home/gaetan/Téléchargements/apitrace/build/CMakeFiles/CMakeTmp »

File /home/gaetan/Téléchargements/apitrace/build/CMakeFiles/CMakeTmp/CheckSymbolExists.c:
/* */
#include <link.h>

int main(int argc, char** argv)
{
  (void)argv;
#ifndef dl_iterate_phdr
  return ((int*)(&dl_iterate_phdr))[argc];
#else
  (void)argc;
  return 0;
#endif
}

Determining if the function fcntl exists passed with the following output:
Change Dir: /home/gaetan/Téléchargements/apitrace/build/CMakeFiles/CMakeTmp

Run Build Command:"/usr/bin/make" "cmTC_cf95d/fast"
/usr/bin/make -f CMakeFiles/cmTC_cf95d.dir/build.make CMakeFiles/cmTC_cf95d.dir/build
make[1] : on entre dans le répertoire « /home/gaetan/Téléchargements/apitrace/build/CMakeFiles/CMakeTmp »
Building C object CMakeFiles/cmTC_cf95d.dir/CheckFunctionExists.c.o
/usr/bin/cc  -D_GNU_SOURCE  -fvisibility=hidden -Wall -Wno-sign-compare -fno-strict-aliasing -fmessage-length=0 -fno-omit-frame-pointer -DCHECK_FUNCTION_EXISTS=fcntl   -o CMakeFiles/cmTC_cf95d.dir/CheckFunctionExists.c.o   -c /usr/share/cmake-3.5/Modules/CheckFunctionExists.c
Linking C executable cmTC_cf95d
/usr/bin/cmake -E cmake_link_script CMakeFiles/cmTC_cf95d.dir/link.txt --verbose=1
/usr/bin/cc   -fvisibility=hidden -Wall -Wno-sign-compare -fno-strict-aliasing -fmessage-length=0 -fno-omit-frame-pointer -DCHECK_FUNCTION_EXISTS=fcntl    CMakeFiles/cmTC_cf95d.dir/CheckFunctionExists.c.o  -o cmTC_cf95d -rdynamic 
make[1] : on quitte le répertoire « /home/gaetan/Téléchargements/apitrace/build/CMakeFiles/CMakeTmp »


Determining if the function strnlen exists passed with the following output:
Change Dir: /home/gaetan/Téléchargements/apitrace/build/CMakeFiles/CMakeTmp

Run Build Command:"/usr/bin/make" "cmTC_e45c5/fast"
/usr/bin/make -f CMakeFiles/cmTC_e45c5.dir/build.make CMakeFiles/cmTC_e45c5.dir/build
make[1] : on entre dans le répertoire « /home/gaetan/Téléchargements/apitrace/build/CMakeFiles/CMakeTmp »
Building C object CMakeFiles/cmTC_e45c5.dir/CheckFunctionExists.c.o
/usr/bin/cc  -D_GNU_SOURCE  -fvisibility=hidden -Wall -Wno-sign-compare -fno-strict-aliasing -fmessage-length=0 -fno-omit-frame-pointer -DCHECK_FUNCTION_EXISTS=strnlen   -o CMakeFiles/cmTC_e45c5.dir/CheckFunctionExists.c.o   -c /usr/share/cmake-3.5/Modules/CheckFunctionExists.c
Linking C executable cmTC_e45c5
/usr/bin/cmake -E cmake_link_script CMakeFiles/cmTC_e45c5.dir/link.txt --verbose=1
/usr/bin/cc   -fvisibility=hidden -Wall -Wno-sign-compare -fno-strict-aliasing -fmessage-length=0 -fno-omit-frame-pointer -DCHECK_FUNCTION_EXISTS=strnlen    CMakeFiles/cmTC_e45c5.dir/CheckFunctionExists.c.o  -o cmTC_e45c5 -rdynamic 
make[1] : on quitte le répertoire « /home/gaetan/Téléchargements/apitrace/build/CMakeFiles/CMakeTmp »


Determining if the include file dwarf.h exists passed with the following output:
Change Dir: /home/gaetan/Téléchargements/apitrace/build/CMakeFiles/CMakeTmp

Run Build Command:"/usr/bin/make" "cmTC_ac5f5/fast"
/usr/bin/make -f CMakeFiles/cmTC_ac5f5.dir/build.make CMakeFiles/cmTC_ac5f5.dir/build
make[1] : on entre dans le répertoire « /home/gaetan/Téléchargements/apitrace/build/CMakeFiles/CMakeTmp »
Building C object CMakeFiles/cmTC_ac5f5.dir/CheckIncludeFile.c.o
/usr/bin/cc  -D_GNU_SOURCE  -fvisibility=hidden -Wall -Wno-sign-compare -fno-strict-aliasing -fmessage-length=0 -fno-omit-frame-pointer    -o CMakeFiles/cmTC_ac5f5.dir/CheckIncludeFile.c.o   -c /home/gaetan/Téléchargements/apitrace/build/CMakeFiles/CMakeTmp/CheckIncludeFile.c
Linking C executable cmTC_ac5f5
/usr/bin/cmake -E cmake_link_script CMakeFiles/cmTC_ac5f5.dir/link.txt --verbose=1
/usr/bin/cc   -fvisibility=hidden -Wall -Wno-sign-compare -fno-strict-aliasing -fmessage-length=0 -fno-omit-frame-pointer     CMakeFiles/cmTC_ac5f5.dir/CheckIncludeFile.c.o  -o cmTC_ac5f5 -rdynamic 
make[1] : on quitte le répertoire « /home/gaetan/Téléchargements/apitrace/build/CMakeFiles/CMakeTmp »


Performing C++ SOURCE FILE Test STATIC_LIBSTDCXX_PIC succeeded with the following output:
Change Dir: /home/gaetan/Téléchargements/apitrace/build/CMakeFiles/CMakeTmp

Run Build Command:"/usr/bin/make" "cmTC_d6497/fast"
/usr/bin/make -f CMakeFiles/cmTC_d6497.dir/build.make CMakeFiles/cmTC_d6497.dir/build
make[1] : on entre dans le répertoire « /home/gaetan/Téléchargements/apitrace/build/CMakeFiles/CMakeTmp »
Building CXX object CMakeFiles/cmTC_d6497.dir/src.cxx.o
/usr/bin/c++     -fvisibility=hidden -std=gnu++11 -Wall -Wno-sign-compare -fno-strict-aliasing -fno-rtti -fno-exceptions -fmessage-length=0 -fno-omit-frame-pointer -DSTATIC_LIBSTDCXX_PIC -fPIC   -o CMakeFiles/cmTC_d6497.dir/src.cxx.o -c /home/gaetan/Téléchargements/apitrace/build/CMakeFiles/CMakeTmp/src.cxx
Linking CXX executable cmTC_d6497
/usr/bin/cmake -E cmake_link_script CMakeFiles/cmTC_d6497.dir/link.txt --verbose=1
/usr/bin/c++    -fvisibility=hidden -std=gnu++11 -Wall -Wno-sign-compare -fno-strict-aliasing -fno-rtti -fno-exceptions -fmessage-length=0 -fno-omit-frame-pointer -DSTATIC_LIBSTDCXX_PIC -fPIC    CMakeFiles/cmTC_d6497.dir/src.cxx.o  -o cmTC_d6497 -rdynamic -shared -static-libgcc -static-libstdc++ 
make[1] : on quitte le répertoire « /home/gaetan/Téléchargements/apitrace/build/CMakeFiles/CMakeTmp »

Source file was:

            #include <string>
            std::string s;
        
